%YAML 1.1
%TAG !u! tag:unity3d.com,2011:
--- !u!74 &7400000
AnimationClip:
  m_ObjectHideFlags: 0
  m_CorrespondingSourceObject: {fileID: 0}
  m_PrefabInstance: {fileID: 0}
  m_PrefabAsset: {fileID: 0}
  m_Name: playerwalk
  serializedVersion: 6
  m_Legacy: 0
  m_Compressed: 0
  m_UseHighQualityCurve: 1
  m_RotationCurves: []
  m_CompressedRotationCurves: []
  m_EulerCurves: []
  m_PositionCurves: []
  m_ScaleCurves: []
  m_FloatCurves: []
  m_PPtrCurves:
  - curve:
    - time: 0
      value: {fileID: 21300000, guid: a8526282aa8161f48ac0f8770dd510d8, type: 3}
    - time: 0.083333336
      value: {fileID: 21300000, guid: 7ebc0c82186c9eb4c9ebc98d537bd755, type: 3}
    - time: 0.15
      value: {fileID: 21300000, guid: 086a1bc4a8ecad34fa9ad8df707f651d, type: 3}
    - time: 0.23333333
      value: {fileID: 21300000, guid: dab0a5f827201084596f75cd791122ec, type: 3}
    - time: 0.3
      value: {fileID: 21300000, guid: 53aa68d58ec2f524cafcfed419dc7e61, type: 3}
    - time: 0.38333333
      value: {fileID: 21300000, guid: b247e9eaf2404fa459352a231478d2e5, type: 3}
    - time: 0.46666667
      value: {fileID: 21300000, guid: 3e50060958d422140b377167a05c90b8, type: 3}
    - time: 0.55
      value: {fileID: 21300000, guid: a249e16b094a45747a4563ee18564bf7, type: 3}
    - time: 0.6333333
      value: {fileID: 21300000, guid: ecb37ab9796e9f047994a8c6b0658963, type: 3}
    - time: 0.71666664
      value: {fileID: 21300000, guid: 0e24fc7a7a7ce0140ab5422271aa800c, type: 3}
    - time: 0.78333336
      value: {fileID: 21300000, guid: 7d080bf6ffdb2a54d847582e9b341ab9, type: 3}
    - time: 0.8666667
      value: {fileID: 21300000, guid: a603b6f98f636584d9bf8d10137e52c4, type: 3}
    - time: 0.93333334
      value: {fileID: 21300000, guid: e4516b83726e5b4488f01845c4dad910, type: 3}
    - time: 1.0166667
      value: {fileID: 21300000, guid: b97473cda02ce9f4c80ed7414b53b894, type: 3}
    attribute: m_Sprite
    path: 
    classID: 212
    script: {fileID: 0}
  m_SampleRate: 60
  m_WrapMode: 0
  m_Bounds:
    m_Center: {x: 0, y: 0, z: 0}
    m_Extent: {x: 0, y: 0, z: 0}
  m_ClipBindingConstant:
    genericBindings:
    - serializedVersion: 2
      path: 0
      attribute: 0
      script: {fileID: 0}
      typeID: 212
      customType: 23
      isPPtrCurve: 1
    pptrCurveMapping:
    - {fileID: 21300000, guid: a8526282aa8161f48ac0f8770dd510d8, type: 3}
    - {fileID: 21300000, guid: 7ebc0c82186c9eb4c9ebc98d537bd755, type: 3}
    - {fileID: 21300000, guid: 086a1bc4a8ecad34fa9ad8df707f651d, type: 3}
    - {fileID: 21300000, guid: dab0a5f827201084596f75cd791122ec, type: 3}
    - {fileID: 21300000, guid: 53aa68d58ec2f524cafcfed419dc7e61, type: 3}
    - {fileID: 21300000, guid: b247e9eaf2404fa459352a231478d2e5, type: 3}
    - {fileID: 21300000, guid: 3e50060958d422140b377167a05c90b8, type: 3}
    - {fileID: 21300000, guid: a249e16b094a45747a4563ee18564bf7, type: 3}
    - {fileID: 21300000, guid: ecb37ab9796e9f047994a8c6b0658963, type: 3}
    - {fileID: 21300000, guid: 0e24fc7a7a7ce0140ab5422271aa800c, type: 3}
    - {fileID: 21300000, guid: 7d080bf6ffdb2a54d847582e9b341ab9, type: 3}
    - {fileID: 21300000, guid: a603b6f98f636584d9bf8d10137e52c4, type: 3}
    - {fileID: 21300000, guid: e4516b83726e5b4488f01845c4dad910, type: 3}
    - {fileID: 21300000, guid: b97473cda02ce9f4c80ed7414b53b894, type: 3}
  m_AnimationClipSettings:
    serializedVersion: 2
    m_AdditiveReferencePoseClip: {fileID: 0}
    m_AdditiveReferencePoseTime: 0
    m_StartTime: 0
    m_StopTime: 1.0333333
    m_OrientationOffsetY: 0
    m_Level: 0
    m_CycleOffset: 0
    m_HasAdditiveReferencePose: 0
    m_LoopTime: 1
    m_LoopBlend: 0
    m_LoopBlendOrientation: 0
    m_LoopBlendPositionY: 0
    m_LoopBlendPositionXZ: 0
    m_KeepOriginalOrientation: 0
    m_KeepOriginalPositionY: 1
    m_KeepOriginalPositionXZ: 0
    m_HeightFromFeet: 0
    m_Mirror: 0
  m_EditorCurves: []
  m_EulerEditorCurves: []
  m_HasGenericRootTransform: 0
  m_HasMotionFloatCurves: 0
  m_Events: []
