%YAML 1.1
%TAG !u! tag:unity3d.com,2011:
--- !u!74 &7400000
AnimationClip:
  m_ObjectHideFlags: 0
  m_CorrespondingSourceObject: {fileID: 0}
  m_PrefabInstance: {fileID: 0}
  m_PrefabAsset: {fileID: 0}
  m_Name: zombie_dead
  serializedVersion: 6
  m_Legacy: 0
  m_Compressed: 0
  m_UseHighQualityCurve: 1
  m_RotationCurves: []
  m_CompressedRotationCurves: []
  m_EulerCurves: []
  m_PositionCurves: []
  m_ScaleCurves: []
  m_FloatCurves: []
  m_PPtrCurves:
  - curve:
    - time: 0
      value: {fileID: 21300000, guid: 44321ee2ab4293d469f0474839e98d57, type: 3}
    - time: 0.16666667
      value: {fileID: 21300000, guid: f9b7b36c519532c4aac2fdcfadb263b2, type: 3}
    - time: 0.25
      value: {fileID: 21300000, guid: 3a2118af16e20e94aa8c614058461c78, type: 3}
    - time: 0.41666666
      value: {fileID: 21300000, guid: 520ef46b373452f4183de1b431cdcaeb, type: 3}
    - time: 0.5833333
      value: {fileID: 21300000, guid: 16eb29f914222504cb547e7414804892, type: 3}
    - time: 0.75
      value: {fileID: 21300000, guid: 65f0712a2c4fe5f418ede09728b66a66, type: 3}
    - time: 0.8333333
      value: {fileID: 21300000, guid: 68cffe7e2746f9948bee066bece937aa, type: 3}
    - time: 1
      value: {fileID: 21300000, guid: 534f0324f2da37e49a476a3396a8de1e, type: 3}
    attribute: m_Sprite
    path: 
    classID: 212
    script: {fileID: 0}
  m_SampleRate: 12
  m_WrapMode: 0
  m_Bounds:
    m_Center: {x: 0, y: 0, z: 0}
    m_Extent: {x: 0, y: 0, z: 0}
  m_ClipBindingConstant:
    genericBindings:
    - serializedVersion: 2
      path: 0
      attribute: 0
      script: {fileID: 0}
      typeID: 212
      customType: 23
      isPPtrCurve: 1
    pptrCurveMapping:
    - {fileID: 21300000, guid: 44321ee2ab4293d469f0474839e98d57, type: 3}
    - {fileID: 21300000, guid: f9b7b36c519532c4aac2fdcfadb263b2, type: 3}
    - {fileID: 21300000, guid: 3a2118af16e20e94aa8c614058461c78, type: 3}
    - {fileID: 21300000, guid: 520ef46b373452f4183de1b431cdcaeb, type: 3}
    - {fileID: 21300000, guid: 16eb29f914222504cb547e7414804892, type: 3}
    - {fileID: 21300000, guid: 65f0712a2c4fe5f418ede09728b66a66, type: 3}
    - {fileID: 21300000, guid: 68cffe7e2746f9948bee066bece937aa, type: 3}
    - {fileID: 21300000, guid: 534f0324f2da37e49a476a3396a8de1e, type: 3}
  m_AnimationClipSettings:
    serializedVersion: 2
    m_AdditiveReferencePoseClip: {fileID: 0}
    m_AdditiveReferencePoseTime: 0
    m_StartTime: 0
    m_StopTime: 1.0833334
    m_OrientationOffsetY: 0
    m_Level: 0
    m_CycleOffset: 0
    m_HasAdditiveReferencePose: 0
    m_LoopTime: 0
    m_LoopBlend: 0
    m_LoopBlendOrientation: 0
    m_LoopBlendPositionY: 0
    m_LoopBlendPositionXZ: 0
    m_KeepOriginalOrientation: 0
    m_KeepOriginalPositionY: 1
    m_KeepOriginalPositionXZ: 0
    m_HeightFromFeet: 0
    m_Mirror: 0
  m_EditorCurves: []
  m_EulerEditorCurves: []
  m_HasGenericRootTransform: 0
  m_HasMotionFloatCurves: 0
  m_Events:
  - time: 1
    functionName: Destroy
    data: 
    objectReferenceParameter: {fileID: 0}
    floatParameter: 0
    intParameter: 0
    messageOptions: 0
